MODULE TestModule3
    !***********************************************************
    !
    ! Module:  TestModule3
    !
    ! Description:
    !   Skeleton module to control a YuMi robot
    !
    ! Author: Nicolas Duminy
    !
    ! Version: 1.0
    !
    !***********************************************************
    
    
    
    
    PROC main()
    
    ENDPROC
    
    
ENDMODULE