MODULE TestModule10
    
    CONST zonedata passByZone := z10;
    
    PERS robtarget rest := [[598.767,87.6491,339.742],[0.028187,0.0064465,-0.999539,0.00926088],[2,2,0,4],[-106.714,9E+09,9E+09,9E+09,9E+09,9E+09]];
    PERS robtarget point1 := [[400,-350,84.0001],[1.19262E-07,1,-1.8934E-08,-8.48116E-08],[2,1,1,4],[-3.33852,9E+09,9E+09,9E+09,9E+09,9E+09]];
    PERS robtarget point2 := [[350,100,84.0002],[3.38559E-07,-0.422618,0.906308,2.1358E-07],[1,-1,-1,4],[-106.714,9E+09,9E+09,9E+09,9E+09,9E+09]];
    PERS robtarget point3 := [[250,-350,84],[1.86952E-08,-1.61694E-07,-1,-1.29737E-07],[1,0,-2,4],[-106.714,9E+09,9E+09,9E+09,9E+09,9E+09]];
    PERS robtarget point4 := [[300,-470,84.0001],[2.88995E-08,-1.33795E-09,1,2.83895E-07],[1,0,-2,4],[-106.714,9E+09,9E+09,9E+09,9E+09,9E+09]];
    PERS robtarget point5 := [[500,-470,84],[1.50798E-08,0.173648,0.984808,-3.45545E-07],[1,0,-2,4],[-106.714,9E+09,9E+09,9E+09,9E+09,9E+09]];
    PERS robtarget point8 := [[550,-120,84.0001],[1.91957E-07,-1.61325E-07,1,1.39655E-07],[1,1,1,4],[-179.023,9E+09,9E+09,9E+09,9E+09,9E+09]];
    PERS robtarget point9 := [[350,-120,84],[1.32279E-07,-0.258819,0.965926,-4.72003E-09],[1,1,2,4],[145.997,9E+09,9E+09,9E+09,9E+09,9E+09]];
    PERS robtarget point11 := [[500,220,83.9998],[8.24733E-08,0.422618,-0.906308,1.8141E-07],[2,1,2,4],[145.997,9E+09,9E+09,9E+09,9E+09,9E+09]];
    PERS robtarget point12 := [[300,320,83.9998],[9.60656E-08,-0.5,0.866025,-8.03504E-08],[2,1,1,4],[145.997,9E+09,9E+09,9E+09,9E+09,9E+09]];
    PERS robtarget point15 := [[250,220,83.9998],[5.24803E-08,0.707106,-0.707107,2.30241E-07],[2,1,1,4],[145.997,9E+09,9E+09,9E+09,9E+09,9E+09]];
    PERS robtarget point16 := [[500,20.0001,84.0001],[3.16354E-07,-0.382684,0.923879,-2.3177E-07],[1,1,2,4],[145.997,9E+09,9E+09,9E+09,9E+09,9E+09]];
    PERS robtarget point17 := [[500,-270,84],[1.04702E-07,-2.39304E-07,-1,2.38726E-07],[1,1,2,4],[145.997,9E+09,9E+09,9E+09,9E+09,9E+09]];
    PERS robtarget point18 := [[250,19.9999,84],[2.05552E-07,-0.707107,0.707107,-3.29293E-07],[1,1,2,4],[145.997,9E+09,9E+09,9E+09,9E+09,9E+09]];
    PERS robtarget point19 := [[300,-220,83.9999],[1.33638E-07,-3.36556E-07,-1,2.75087E-07],[1,1,2,4],[145.997,9E+09,9E+09,9E+09,9E+09,9E+09]];
    
    PERS robtarget point1_2 := [[400,-350,200],[1.03146E-07,1,2.28481E-07,-2.8182E-08],[2,0,1,4],[-3.33851,9E+09,9E+09,9E+09,9E+09,9E+09]];
    PERS robtarget point2_2 := [[350,100,200],[3.57463E-08,0.422618,-0.906308,-8.47093E-08],[1,-2,0,4],[-106.714,9E+09,9E+09,9E+09,9E+09,9E+09]];
    PERS robtarget point3_2 := [[250,-350,200],[8.45176E-08,2.45504E-07,-1,-3.20702E-07],[0,0,-2,4],[-106.714,9E+09,9E+09,9E+09,9E+09,9E+09]];
    PERS robtarget point4_2 := [[300,-470,200],[2.98931E-11,-2.25394E-07,1,-4.38414E-07],[1,0,-1,4],[-106.714,9E+09,9E+09,9E+09,9E+09,9E+09]];
    PERS robtarget point5_2 := [[500,-470,200],[1.90855E-08,0.173648,0.984808,-1.83383E-08],[1,-1,-1,4],[-106.714,9E+09,9E+09,9E+09,9E+09,9E+09]];
    PERS robtarget point8_2 := [[550,-120,200],[3.66152E-07,-1.37124E-07,1,4.47681E-08],[1,2,1,4],[-179.023,9E+09,9E+09,9E+09,9E+09,9E+09]];
    PERS robtarget point9_2 := [[350,-120,200],[2.6787E-07,-0.258819,0.965926,-3.86534E-07],[1,1,2,4],[145.997,9E+09,9E+09,9E+09,9E+09,9E+09]];
    PERS robtarget point11_2 := [[500,220,200],[2.47952E-07,0.422618,-0.906308,-3.34852E-07],[2,2,1,4],[145.997,9E+09,9E+09,9E+09,9E+09,9E+09]];
    PERS robtarget point12_2 := [[300,320,200],[4.83611E-07,-0.5,0.866025,4.83732E-08],[2,2,1,4],[145.997,9E+09,9E+09,9E+09,9E+09,9E+09]];
    PERS robtarget point15_2 := [[250,220,200],[2.43353E-07,0.707107,-0.707107,-1.30666E-07],[2,1,1,4],[145.997,9E+09,9E+09,9E+09,9E+09,9E+09]];
    PERS robtarget point16_2 := [[500,20,200],[2.14437E-07,-0.382684,0.923879,-2.37312E-07],[1,1,2,4],[145.997,9E+09,9E+09,9E+09,9E+09,9E+09]];
    PERS robtarget point17_2 := [[500,-270,200],[1.56224E-07,-3.07179E-07,1,-2.93171E-07],[1,1,2,4],[145.997,9E+09,9E+09,9E+09,9E+09,9E+09]];
    PERS robtarget point18_2 := [[250,19.9999,200],[1.12902E-07,0.707107,-0.707107,9.88298E-08],[1,1,2,4],[145.997,9E+09,9E+09,9E+09,9E+09,9E+09]];
    PERS robtarget point19_2 := [[300,-220,200],[1.31968E-07,-3.12166E-07,1,3.55512E-07],[0,1,2,4],[145.997,9E+09,9E+09,9E+09,9E+09,9E+09]];
    
    
    VAR robtarget start;
    
    PERS bool startsync := FALSE;
	PERS bool stopsync := TRUE;
    
    PROC main()
        !start := CRobt(\Tool:=VaccumOne, \Wobj:=wobj0);
        Stop;
        startsync := TRUE;
		stopsync := FALSE;
        MoveJ point19_2, v1000, \T:=3, passByZone, VaccumOne;
        MoveL point19, v1000, \T:=2, fine, VaccumOne;
        startsync := FALSE;
		stopsync := TRUE;
        Stop;
    ENDPROC
    
ENDMODULE